[api-updater (non-obsolete-error-filter)] 29/04/2022 9:22:56 PM : Starting C:/Program Files/Unity/Hub/Editor/2020.3.9f1/Editor/Data/Tools/ScriptUpdater/APIUpdater.NonObsoleteApiUpdaterDetector.exe
[api-updater (non-obsolete-error-filter)] 
----------------------------------
jit/startup time      : 62.9912ms
moved types parse time: 50ms
candidates parse time : 1ms
C# parse time         : 165ms
candidates check time : 25ms
console write time    : 0ms

[api-updater (non-obsolete-error-filter)] 29/04/2022 9:27:32 PM : Starting C:/Program Files/Unity/Hub/Editor/2020.3.9f1/Editor/Data/Tools/ScriptUpdater/APIUpdater.NonObsoleteApiUpdaterDetector.exe
[api-updater (non-obsolete-error-filter)] 
----------------------------------
jit/startup time      : 61.5108ms
moved types parse time: 49ms
candidates parse time : 1ms
C# parse time         : 155ms
candidates check time : 25ms
console write time    : 0ms

[api-updater (non-obsolete-error-filter)] 29/04/2022 9:43:22 PM : Starting C:/Program Files/Unity/Hub/Editor/2020.3.9f1/Editor/Data/Tools/ScriptUpdater/APIUpdater.NonObsoleteApiUpdaterDetector.exe
[api-updater (non-obsolete-error-filter)] 
----------------------------------
jit/startup time      : 57.0439ms
moved types parse time: 49ms
candidates parse time : 1ms
C# parse time         : 194ms
candidates check time : 36ms
console write time    : 0ms

